ENTITIES
LWPOLYLINE
AcDbPolyline
90
12
70
0
10
-2.010912
20
-1.262602
10
-1.010912
20
-1.262602
10
-1.010912
20
-1.725205
10
-1.910912
20
-1.725205
10
-2.210912
20
-1.9
10
-2.710912
20
-1.9
10
-3.010912
20
-2.0
10
-4.510912
20
-2.0
10
-4.510912
20
0.0
10
-1.010912
20
0.0
10
-1.010912
20
-0.462602
10
-2.010912
20
-0.462602
