ENTITIES
LWPOLYLINE
AcDbPolyline
90
21
70
0
10
0.0
20
0.0
10
0.735838
20
0.0
10
0.735838
20
0.610819
10
-4.264162
20
0.610819
10
-4.264162
20
-1.089181
10
-3.964162
20
-1.389181
10
-3.676803
20
-1.389181
10
-3.376803
20
-1.089181
10
-3.148003
20
-1.279867
10
-2.870946
20
-1.389181
10
-0.515876
20
-1.389181
10
-0.238819
20
-1.279867
10
-0.010019
20
-1.089181
10
0.042403
20
-1.089181
10
0.142329
20
-1.236997
10
0.29991
20
-1.320679
10
0.478332
20
-1.320679
10
0.635913
20
-1.236997
10
0.735838
20
-1.089181
10
0.735838
20
-0.8
10
0.0
20
-0.8
